Computing Annual Trends with fasstr • fasstr
…
To provide examples of the outputs, an analysis will be completed on a Mission Creek HYDAT station from 1973 to 2013. The argument zyp_method is described below in the Analysis Results section:

trends_analysis <- compute_annual_trends(station_number = "08NM116",
                                         zyp_method = "yuepilon",
                                         start_year = 1973, end_year = 2013)

The following is an example of the outputted Annual_Trends_Data tibble:

trends_analysis$Annual_Trends_Data

# A tibble: 107 x 43
   STATION_NUMBER Statistic  `1973`  `1974` `1975` `1976`  `1977` `1978`  `1979`
   <chr>          <fct>       <dbl>   <dbl>  <dbl>  <dbl>   <dbl>  <dbl>   <dbl>
 1 08NM116        Annual_M~ 3.77e+1  66     48.7   71.1    36     44.5    43    
 2 08NM116        Annual_M~ 3.33e+0   8.43   5.48   8.18    4.38   6.75    4.40 
 3 08NM116        Annual_M~ 9.80e-1   1.34   1.54   3.84    1.26   3.28    1.56 
 4 08NM116        Annual_M~ 2.50e-2   0.447  0.320  0.736   0.564  0.532   0.411
 5 08NM116        Annual_P~ 5.49e-1   0.709  0.580  0.884   0.776  0.828   0.618
 6 08NM116        Annual_P~ 8.83e+0  33.0   19.6   25.6    17.2   19.7    15.9  
 7 08NM116        Min_1_Day 2.50e-2   0.447  0.320  0.736   0.564  0.532   0.411
 8 08NM116        Min_1_Da~ 2.93e+2 333     11     38      73     55     268    
 9 08NM116        Min_3_Day 4.53e-2   0.533  0.378  0.741   0.627  0.630   0.416
10 08NM116        Min_3_Da~ 2.95e+2 334     39     63     252      3     269    
# ... with 97 more rows, and 34 more variables: `1980` <dbl>, `1981` <dbl>,
#   `1982` <dbl>, `1983` <dbl>, `1984` <dbl>, `1985` <dbl>, `1986` <dbl>,
#   `1987` <dbl>, `1988` <dbl>, `1989` <dbl>, `1990` <dbl>, `1991` <dbl>,
#   `1992` <dbl>, `1993` <dbl>, `1994` <dbl>, `1995` <dbl>, `1996` <dbl>,
#   `1997` <dbl>, `1998` <dbl>, `1999` <dbl>, `2000` <dbl>, `2001` <dbl>,
#   `2002` <dbl>, `2003` <dbl>, `2004` <dbl>, `2005` <dbl>, `2006` <dbl>,
#   `2007` <dbl>, `2008` <dbl>, `2009` <dbl>, `2010` <dbl>, `2011` <dbl>,
#   `2012` <dbl>, `2013` <dbl>
…
median
the median of all values used for trending

min
the minimum of all values used for trending

max
the maximum of all values used for trending

The following is an example of the outputted Annual_Trends_Results tibble from the Mission Creek HYDAT station from 1973 to 2013:

trends_analysis$Annual_Trends_Results

# A tibble: 107 x 20
   STATION_NUMBER Statistic   lbound    trend  trendp  ubound      tau    sig
   <chr>          <fct>        <dbl>    <dbl>   <dbl>   <dbl>    <dbl>  <dbl>
 1 08NM116        Annual_M~ -0.368    5.71e-2  2.34   0.517    0.00513 0.972 
 2 08NM116        Annual_M~ -0.0608  -4.47e-3 -0.183  0.0476  -0.0718  0.522 
 3 08NM116        Annual_M~ -0.0297  -7.45e-3 -0.305  0.0100  -0.138   0.213 
 4 08NM116        Annual_M~ -0.00480 -2.97e-4 -0.0122 0.00450 -0.0487  0.666 
 5 08NM116        Annual_P~ -0.0102  -4.19e-3 -0.172  0.00300 -0.105   0.345 
 6 08NM116        Annual_P~ -0.211    2.05e-3  0.0839 0.218   -0.0308  0.789 
 7 08NM116        Min_1_Day -0.00480 -2.97e-4 -0.0122 0.00450 -0.0487  0.666 
 8 08NM116        Min_1_Da~ -0.5      1.74e+0 71.3    6.55     0.285   0.0100
 9 08NM116        Min_3_Day -0.00460  3.45e-4  0.0142 0.00529 -0.0282  0.807 
10 08NM116        Min_3_Da~ -1.65     7.57e-1 31.0    3        0.131   0.239 
# ... with 97 more rows, and 12 more variables: nruns <dbl>, autocor <dbl>,
#   valid_frac <dbl>, linear <dbl>, intercept <dbl>, min_year <dbl>,
#   max_year <dbl>, n_years <int>, mean <dbl>, median <dbl>, min <dbl>,
#   max <dbl>
…
