Computing Frequency Analyses with fasstr • fasstr
…
values - the flow value in cubic metres per second.

measures - the type of flow value/event (i.e. “Inst. Peak” or “7-Day Low”); can have multiple measures (ex. 3-day and 7-day) that will be plotted and computed.

Here is an example of data the can be provided, wrangled from the annual lowflows function:

low_flows <- calc_annual_lowflows(station_number = "08NM116",
                                  start_year = 1980,
                                  end_year = 2000,
                                  roll_days = 7)
low_flows <- dplyr::select(low_flows, Year, Value = Min_7_Day)
low_flows <- dplyr::mutate(low_flows, Measure = "7-Day")
low_flows

# A tibble: 21 x 3
    Year Value Measure
   <dbl> <dbl> <chr>  
 1  1980 0.655 7-Day  
 2  1981 0.885 7-Day  
 3  1982 1.05  7-Day  
 4  1983 0.634 7-Day  
 5  1984 0.784 7-Day  
 6  1985 0.589 7-Day  
 7  1986 0.719 7-Day  
 8  1987 0.355 7-Day  
 9  1988 0.186 7-Day  
10  1989 0.577 7-Day  
# ... with 11 more rows
…
The returned Freq_Analysis_Data object provides the raw data used in the frequency analyses. Based on the selected frequency function used, this tibble will contain the respective data; the provided values with the custom analysis, the computed extremes with the annual analysis, and the HYDAT extreme peaks from HYDAT in the peak analysis. See each functions’ documentation for more information. This tibble object provides the analysis data as the annual and HYDAT peak data are calculated or extracted from HYDAT.

To provide examples of the outputs, an annual analysis will be completed on a Mission Creek HYDAT station (the plot_curve argument is set to FALSE for the start of this example):

freq_analysis <- compute_annual_frequencies(station_number = "08NM116",
                                            start_year = 1981,
                                            end_year = 2010,
                                            roll_days = 7,
                                            plot_curve = FALSE)

The following is an example of the outputted Freq_Analysis_Data tibble:

freq_analysis$Freq_Analysis_Data

# A tibble: 30 x 3
    Year Measure Value
   <dbl> <fct>   <dbl>
 1  1981 7-Day   0.885
 2  1982 7-Day   1.05 
 3  1983 7-Day   0.634
 4  1984 7-Day   0.784
 5  1985 7-Day   0.589
 6  1986 7-Day   0.719
 7  1987 7-Day   0.355
 8  1988 7-Day   0.186
 9  1989 7-Day   0.577
10  1990 7-Day   0.958
# ... with 20 more rows
…
where:

m is the rank of the value

n the total number of events in the data

A & B are the constants depending on which plotting position is used (weibull, median, or hazen)

The probability plotting positions (A and B constants) are selected using the prob_plot_position argument, listing 'weibull' where A and B are 0, 'median' where A and B are 0.3, or 'hazen' where A and B are 0.5. The selected plotting position does not have an effect on the final computed curve. To plot the data on a logarithmic scale, set the use_log argument to TRUE.

With these options set, the data used for plotting is outputted in the Freq_Plot_Data tibble object. The events are sorted by measure, and ranked by the event value, and provides the probability and the return period for each event, used for plotting. See the following for an example of this output:

freq_analysis$Freq_Plot_Data

# A tibble: 30 x 5
    Year Measure Value Probability `Return Period`
   <dbl> <fct>   <dbl>       <dbl>           <dbl>
 1  1988 7-Day   0.186      0.0323           31   
 2  1993 7-Day   0.298      0.0645           15.5 
 3  2002 7-Day   0.331      0.0968           10.3 
 4  1987 7-Day   0.355      0.129             7.75
 5  2003 7-Day   0.363      0.161             6.2 
 6  2010 7-Day   0.454      0.194             5.17
 7  2007 7-Day   0.454      0.226             4.43
 8  2008 7-Day   0.463      0.258             3.88
 9  1994 7-Day   0.465      0.290             3.44
10  2009 7-Day   0.502      0.323             3.1 
# ... with 20 more rows
…
