fasstr Users Guide • fasstr
…
add_daily_yield() - add daily water yields (in millimetres)

add_cumulative_volume() - add daily cumulative volumetric flows on an annual basis (in cubic metres)

add_cumulative_yield() - add daily cumulative water yields on an annual basis (in millimetres)

The functions are set up to easily incorporate the use of the pipe operator:

fill_missing_dates(station_number = "08HA011") %>% 
  dplyr::select(Date, Value) %>%  # keeps just the Date and Value columns
  add_date_variables() %>% 
  add_rolling_means(roll_days = 7)

# A tibble: 21,915 x 8
   Date       Value CalendarYear Month MonthName WaterYear DayofYear Q7Day
   <date>     <dbl>        <dbl> <dbl> <fct>         <dbl>     <dbl> <dbl>
 1 1960-01-01  62.9         1960     1 Jan            1960         1  NA  
 2 1960-01-02  58           1960     1 Jan            1960         2  NA  
 3 1960-01-03  54.9         1960     1 Jan            1960         3  NA  
 4 1960-01-04  51.3         1960     1 Jan            1960         4  NA  
 5 1960-01-05  47.3         1960     1 Jan            1960         5  NA  
 6 1960-01-06  46.7         1960     1 Jan            1960         6  NA  
 7 1960-01-07  43.9         1960     1 Jan            1960         7  52.1
 8 1960-01-08  41.9         1960     1 Jan            1960         8  49.1
 9 1960-01-09  40.8         1960     1 Jan            1960         9  46.7
10 1960-01-10  38.5         1960     1 Jan            1960        10  44.3
# ... with 21,905 more rows
…
Pipelines

By utilizing the data argument as the first one list, it enables the user to work with the tidying functions within a tidy ‘pipeline’ and can pass onto the other fasstr functions.

fill_missing_dates(station_number = "08NM116") %>% 
  add_date_variables(water_year_start = 9) %>%
  add_seasons(seasons_length = 3) %>% 
  add_rolling_means() %>%
  add_basin_area() %>% 
  add_daily_volume() %>%
  add_daily_yield() %>%
  add_cumulative_volume() %>% 
  add_cumulative_yield()

# A tibble: 25,202 x 19
   STATION_NUMBER Date       Parameter Value Symbol CalendarYear Month MonthName
   <chr>          <date>     <chr>     <dbl> <chr>         <dbl> <dbl> <fct>    
 1 08NM116        1949-01-01 Flow         NA <NA>           1949     1 Jan      
 2 08NM116        1949-01-02 Flow         NA <NA>           1949     1 Jan      
 3 08NM116        1949-01-03 Flow         NA <NA>           1949     1 Jan      
 4 08NM116        1949-01-04 Flow         NA <NA>           1949     1 Jan      
 5 08NM116        1949-01-05 Flow         NA <NA>           1949     1 Jan      
 6 08NM116        1949-01-06 Flow         NA <NA>           1949     1 Jan      
 7 08NM116        1949-01-07 Flow         NA <NA>           1949     1 Jan      
 8 08NM116        1949-01-08 Flow         NA <NA>           1949     1 Jan      
 9 08NM116        1949-01-09 Flow         NA <NA>           1949     1 Jan      
10 08NM116        1949-01-10 Flow         NA <NA>           1949     1 Jan      
# ... with 25,192 more rows, and 11 more variables: WaterYear <dbl>,
#   DayofYear <dbl>, Season <fct>, Q3Day <dbl>, Q7Day <dbl>, Q30Day <dbl>,
#   Basin_Area_sqkm <dbl>, Volume_m3 <dbl>, Yield_mm <dbl>,
#   Cumul_Volume_m3 <dbl>, Cumul_Yield_mm <dbl>
…
The screen_flow_data() function provides an overview of the number of flow values per year and each month per year, along with annual minimums, maximums, means, and standard deviations to inspect for outliers in the data.

screen_flow_data(station_number = "08NM116")

# A tibble: 69 x 22
   STATION_NUMBER  Year n_days   n_Q n_missing_Q Minimum Maximum  Mean Median
   <chr>          <dbl>  <int> <int>       <int>   <dbl>   <dbl> <dbl>  <dbl>
 1 08NM116         1949    365   183         182   0.623    49.3  7.77   2.27
 2 08NM116         1950    365   183         182   0.623    52.1  7.76   2.07
 3 08NM116         1951    365   183         182   0.623    49.3  8.99   3.71
 4 08NM116         1952    366   183         183   0.850    50.7 10.3    3.17
 5 08NM116         1953    365   183         182   0.340    62.3  8.30   4.56
 6 08NM116         1954    365   183         182   0.566    36.2 11.3    5.38
 7 08NM116         1955    365   160         205   0.396    34    8.97   4.02
 8 08NM116         1956    366   176         190   0.719    38.5  9.04   3.97
 9 08NM116         1957    365   170         195   0.680    42.5  8.88   2.44
10 08NM116         1958    365   183         182   0.311    34    6.98   2.32
# ... with 59 more rows, and 13 more variables: StandardDeviation <dbl>,
#   Jan_missing_Q <int>, Feb_missing_Q <int>, Mar_missing_Q <int>,
#   Apr_missing_Q <int>, May_missing_Q <int>, Jun_missing_Q <int>,
#   Jul_missing_Q <int>, Aug_missing_Q <int>, Sep_missing_Q <int>,
#   Oct_missing_Q <int>, Nov_missing_Q <int>, Dec_missing_Q <int>
…
Basic annual statistics

The calc_annual_stats() and plot_annual_stats() functions calculate the mean, median, maximum, minimum, and percentiles of daily flows for every year of data provided. In calculating, all daily flow values are grouped by year.

calc_annual_stats(station_number = "08NM116", 
                  start_year = 1974)

# A tibble: 44 x 8
   STATION_NUMBER  Year  Mean Median Maximum Minimum   P10   P90
   <chr>          <dbl> <dbl>  <dbl>   <dbl>   <dbl> <dbl> <dbl>
 1 08NM116         1974  8.43   1.34    66     0.447 0.709  33.0
 2 08NM116         1975  5.48   1.54    48.7   0.320 0.580  19.6
 3 08NM116         1976  8.18   3.84    71.1   0.736 0.884  25.6
 4 08NM116         1977  4.38   1.26    36     0.564 0.776  17.2
 5 08NM116         1978  6.75   3.28    44.5   0.532 0.828  19.7
 6 08NM116         1979  4.40   1.56    43     0.411 0.618  15.9
 7 08NM116         1980  5.37   1.88    46.2   0.623 0.793  20.1
 8 08NM116         1981  7.67   2.77    60.6   0.398 1.5    22.3
 9 08NM116         1982  8.46   2.68    54.5   0.815 1.40   30.3
10 08NM116         1983  7.85   3.13    60.2   0.530 1.44   23.5
# ... with 34 more rows
…
Basic monthly statistics

The calc_monthly_stats() and plot_monthly_stats() functions calculate the mean, median, maximum, minimum, and percentiles of daily flows for each month of each year. In calculating, all daily flow values are grouped by year and month.

calc_monthly_stats(station_number = "08NM116", 
                   start_year = 1974)

# A tibble: 528 x 9
   STATION_NUMBER  Year Month   Mean Median Maximum Minimum    P10   P90
   <chr>          <dbl> <fct>  <dbl>  <dbl>   <dbl>   <dbl>  <dbl> <dbl>
 1 08NM116         1974 Jan    1.02   1.02     1.26   0.864  0.906  1.12
 2 08NM116         1974 Feb    0.985  0.984    1.06   0.830  0.944  1.04
 3 08NM116         1974 Mar    1.21   1.12     2.14   0.855  0.937  1.97
 4 08NM116         1974 Apr    7.76   4.91    28.3    1.85   1.92  18.7 
 5 08NM116         1974 May   29.8   30.3     50.4   15.9   17.5   43.3 
 6 08NM116         1974 Jun   44.5   44.9     66     20.6   25.6   61.3 
 7 08NM116         1974 Jul    9.97   8.21    24.8    2.42   3.79  20.1 
 8 08NM116         1974 Aug    1.76   1.61     3.71   0.960  1.20   2.28
 9 08NM116         1974 Sep    1.47   1.39     2.10   1.13   1.20   1.78
10 08NM116         1974 Oct    1.23   1.12     2.08   0.838  0.867  1.69
# ... with 518 more rows
…
Basic daily statistics

The calc_daily_stats() and plot_daily_stats() functions calculate the mean, median, maximum, minimum, and percentiles of daily flows for each day of the year. For example, for a given day of year (i.e. day 1 (Jan-01) or day 2 (Jan-02)), all flow values for that day from the entire record are summarized together. Only the first 365 days of each year are summarized (ignores the 366th day from leap years). In calculating, all daily flow values are grouped by day of year.

calc_daily_stats(station_number = "08NM116", 
                 start_year = 1974)

# A tibble: 365 x 11
   STATION_NUMBER Date  DayofYear  Mean Median Minimum Maximum    P5   P25   P75
   <chr>          <chr>     <dbl> <dbl>  <dbl>   <dbl>   <dbl> <dbl> <dbl> <dbl>
 1 08NM116        Jan-~         1  1.08  0.970   0.328    2.51 0.540 0.692  1.38
 2 08NM116        Jan-~         2  1.05  0.920   0.310    2.26 0.526 0.690  1.35
 3 08NM116        Jan-~         3  1.03  0.897   0.290    2    0.524 0.703  1.22
 4 08NM116        Jan-~         4  1.04  0.903   0.284    2.52 0.505 0.732  1.29
 5 08NM116        Jan-~         5  1.03  0.895   0.302    2.25 0.534 0.709  1.23
 6 08NM116        Jan-~         6  1.03  0.876   0.315    2.32 0.519 0.742  1.30
 7 08NM116        Jan-~         7  1.06  0.905   0.312    2.80 0.493 0.744  1.20
 8 08NM116        Jan-~         8  1.10  0.960   0.314    4    0.514 0.755  1.23
 9 08NM116        Jan-~         9  1.11  0.977   0.327    4.20 0.509 0.740  1.33
10 08NM116        Jan-~        10  1.12  0.947   0.334    4.70 0.450 0.707  1.30
# ... with 355 more rows, and 1 more variable: P95 <dbl>
…
plot_annual_cumulative_stats() - plot annual and seasonal total flows

plot_monthly_cumulative_stats() - plot cumulative monthly flow statistics

plot_daily_cumulative_stats() - plot cumulative daily flow statistics

While these functions default to volumetric flows, using use_yield = TRUE and basin_area arguments will calculate totals in runoff yield. If there is a groups column of HYDAT station numbers, then the function will automatically pull the basin area out of HYDAT if available; otherwise a basin area will be required. Due to the requirements of a complete annual data set to calculate total flows, only years of complete data are used.

Cumulative annual statistics

The calc_annual_cumulative_stats() function provides the total annual volume or runoff yield (if use_yield = TRUE is used). It totals all flows for a given year in cubic metres.

calc_annual_cumulative_stats(station_number = "08NM116", start_year = 1974)

# A tibble: 44 x 3
   STATION_NUMBER  Year Total_Volume_m3
   <chr>          <dbl>           <dbl>
 1 08NM116         1974      265854182.
 2 08NM116         1975      172900397.
 3 08NM116         1976      258693177.
 4 08NM116         1977      138177100.
 5 08NM116         1978      212792574.
 6 08NM116         1979      138807734.
 7 08NM116         1980      169956317.
 8 08NM116         1981      241854163.
 9 08NM116         1982      266735721.
10 08NM116         1983      247618080.
# ... with 34 more rows

By using the include_seasons = TRUE (logical TRUE/FALSE) argument, total seasonal flows columns will be added to the results. Two columns of two-seasons (2-six months), and four columns of four-seasons (4-three months) will be added. The start month of the first seasons will begin in the first month of the year (ex. Jan for Calendar years or Oct for water years starting in October).

calc_annual_cumulative_stats(station_number = "08NM116", 
                             start_year = 1974,
                             include_seasons = TRUE)

# A tibble: 44 x 9
   STATION_NUMBER  Year Total_Volume_m3 `Jan-Jun_Volume~ `Jul-Dec_Volume~
   <chr>          <dbl>           <dbl>            <dbl>            <dbl>
 1 08NM116         1974      265854182.       223662989.        42191194.
 2 08NM116         1975      172900397.       136045958.        36854438.
 3 08NM116         1976      258693177.       164417817.        94275360.
 4 08NM116         1977      138177100.       115279113.        22897987.
 5 08NM116         1978      212792574.       146659335.        66133239.
 6 08NM116         1979      138807734.       117444383.        21363350.
 7 08NM116         1980      169956317.       131126774.        38829542.
 8 08NM116         1981      241854163.       165675542.        76178621.
 9 08NM116         1982      266735721.       154229097.       112506624.
10 08NM116         1983      247618080.       191691360.        55926720.
# ... with 34 more rows, and 4 more variables: `Jan-Mar_Volume_m3` <dbl>,
#   `Apr-Jun_Volume_m3` <dbl>, `Jul-Sep_Volume_m3` <dbl>,
#   `Oct-Dec_Volume_m3` <dbl>
…
Cumulative daily statistics

The calc_daily_cumulative_stats() and plot_daily_cumulative_stats() functions calculate the mean, median, maximum, minimum, and percentiles of total cumulative daily flows. For each day of each year, the total volume or runoff yield is determined. Then within a given year, the cumulative total for each day is determined by added all previous days (ex. Jan-01 = Jan-01 total; Jan-02 = Jan-01+Jan-02 totals, etc.). Then the mean, median, maximum, minimum, and percentiles are calculated based on those daily cumulative totals for each year. In interpreting the information, if a given total flow is below the mean value, then the cumulative flow is less than average. In other words, less volume has passed through the station than normal at that point in time. Viewing the plot below may help understand how this function works. The percentiles in the calc_ function are flexible using the percentiles argument.

calc_daily_cumulative_stats(station_number = "08NM116", 
                            start_year = 1974)

# A tibble: 365 x 11
   STATION_NUMBER Date  DayofYear   Mean Median Minimum Maximum     P5    P25
   <chr>          <chr>     <dbl>  <dbl>  <dbl>   <dbl>   <dbl>  <dbl>  <dbl>
 1 08NM116        Jan-~         1 9.32e4 8.38e4  28339.  2.17e5 4.67e4 5.97e4
 2 08NM116        Jan-~         2 1.84e5 1.60e5  55123.  4.12e5 9.18e4 1.19e5
 3 08NM116        Jan-~         3 2.73e5 2.36e5  80179.  5.81e5 1.35e5 1.79e5
 4 08NM116        Jan-~         4 3.63e5 3.13e5 104717.  7.69e5 1.82e5 2.41e5
 5 08NM116        Jan-~         5 4.52e5 3.88e5 130810.  9.53e5 2.32e5 3.09e5
 6 08NM116        Jan-~         6 5.41e5 4.67e5 158026.  1.12e6 2.81e5 3.68e5
 7 08NM116        Jan-~         7 6.33e5 5.47e5 184982.  1.29e6 3.27e5 4.31e5
 8 08NM116        Jan-~         8 7.28e5 6.23e5 212112.  1.45e6 3.72e5 4.96e5
 9 08NM116        Jan-~         9 8.25e5 7.12e5 240365.  1.80e6 4.17e5 5.63e5
10 08NM116        Jan-~        10 9.21e5 8.03e5 269222.  2.21e6 4.65e5 6.27e5
# ... with 355 more rows, and 2 more variables: P75 <dbl>, P95 <dbl>
…
plot_annual_lowflows() - plot annual low flow values and dates

plot_annual_outside_normal() - plot annual days above and below normal

plot_annual_means() - plot annual means compared to the long-term mean

Annual flow timing

The calc_annual_flow_timing() calculates the day of year when a portion of a total annual volumetric flow has occurred. Using the percent_total argument, one or multiple portions of annual flow can be calculated. Using 50 as the percent_total is similar to the center of volume or timing of half flow. The day of year and date will be also be produced.

calc_annual_flow_timing(station_number = "08NM116", 
                        start_year = 1974)

# A tibble: 44 x 10
   STATION_NUMBER  Year DoY_25pct_TotalQ Date_25pct_Tota~ DoY_33.3pct_Tot~
   <chr>          <dbl>            <dbl> <date>                      <dbl>
 1 08NM116         1974              135 1974-05-15                    146
 2 08NM116         1975              146 1975-05-26                    153
 3 08NM116         1976              143 1976-05-22                    151
 4 08NM116         1977              124 1977-05-04                    131
 5 08NM116         1978              134 1978-05-14                    142
 6 08NM116         1979              126 1979-05-06                    133
 7 08NM116         1980              127 1980-05-06                    132
 8 08NM116         1981              141 1981-05-21                    145
 9 08NM116         1982              147 1982-05-27                    155
10 08NM116         1983              126 1983-05-06                    137
# ... with 34 more rows, and 5 more variables: Date_33.3pct_TotalQ <date>,
#   DoY_50pct_TotalQ <dbl>, Date_50pct_TotalQ <date>, DoY_75pct_TotalQ <dbl>,
#   Date_75pct_TotalQ <date>
…
Annual low-flows

The calc_annual_lowflows() calculates the annual minimum values, the day of year, and dates of specified rolling mean days (can do multiple days if desired).

calc_annual_lowflows(station_number = "08NM116", 
                     start_year = 1974)

# A tibble: 44 x 14
   STATION_NUMBER  Year Min_1_Day Min_1_Day_DoY Min_1_Day_Date Min_3_Day
   <chr>          <dbl>     <dbl>         <dbl> <date>             <dbl>
 1 08NM116         1974     0.447           333 1974-11-29         0.533
 2 08NM116         1975     0.320            11 1975-01-11         0.378
 3 08NM116         1976     0.736            38 1976-02-07         0.741
 4 08NM116         1977     0.564            73 1977-03-14         0.627
 5 08NM116         1978     0.532            55 1978-02-24         0.630
 6 08NM116         1979     0.411           268 1979-09-25         0.416
 7 08NM116         1980     0.623             9 1980-01-09         0.632
 8 08NM116         1981     0.398           261 1981-09-18         0.468
 9 08NM116         1982     0.815             6 1982-01-06         0.883
10 08NM116         1983     0.530           357 1983-12-23         0.562
# ... with 34 more rows, and 8 more variables: Min_3_Day_DoY <dbl>,
#   Min_3_Day_Date <date>, Min_7_Day <dbl>, Min_7_Day_DoY <dbl>,
#   Min_7_Day_Date <date>, Min_30_Day <dbl>, Min_30_Day_DoY <dbl>,
#   Min_30_Day_Date <date>
…
Annual peaks

Similar to calc_annual_lowflows(), calc_annual_peaks() calculates the annual minimum and maximum values, the day of year, and dates of specified rolling mean days.

calc_annual_peaks(station_number = "08NM116", 
                  start_year = 1974)

# A tibble: 44 x 8
   STATION_NUMBER  Year Min_1_Day Min_1_Day_DoY Min_1_Day_Date Max_1_Day
   <chr>          <dbl>     <dbl>         <dbl> <date>             <dbl>
 1 08NM116         1974     0.447           333 1974-11-29          66  
 2 08NM116         1975     0.320            11 1975-01-11          48.7
 3 08NM116         1976     0.736            38 1976-02-07          71.1
 4 08NM116         1977     0.564            73 1977-03-14          36  
 5 08NM116         1978     0.532            55 1978-02-24          44.5
 6 08NM116         1979     0.411           268 1979-09-25          43  
 7 08NM116         1980     0.623             9 1980-01-09          46.2
 8 08NM116         1981     0.398           261 1981-09-18          60.6
 9 08NM116         1982     0.815             6 1982-01-06          54.5
10 08NM116         1983     0.530           357 1983-12-23          60.2
# ... with 34 more rows, and 2 more variables: Max_1_Day_DoY <dbl>,
#   Max_1_Day_Date <date>
…
