Add a basin area column to daily flows — add_basin_area • fasstr
…
# Add the HYDAT basin area to data from HYDAT
add_basin_area(station_number = "08NM116")

# Set a custom basin area
add_basin_area(station_number = "08NM116",
               basin_area = 800)
               
# Set multiple custom basin areas for multiple stations
add_basin_area(station_number = c("08NM116", "08NM242"),
               basin_area = c("08NM116" = 800, "08NM242" = 10))

}         
#> # A tibble: 35,528 × 6
#>    STATION_NUMBER Date       Parameter Value Symbol Basin_Area_sqkm
#>    <chr>          <date>     <chr>     <dbl> <chr>            <dbl>
#>  1 08NM116        1949-04-01 Flow       1.13 E                  800
#>  2 08NM116        1949-04-02 Flow       1.53 E                  800
#>  3 08NM116        1949-04-03 Flow       2.07 E                  800
#>  4 08NM116        1949-04-04 Flow       2.07 E                  800
#>  5 08NM116        1949-04-05 Flow       2.21 E                  800
#>  6 08NM116        1949-04-06 Flow       2.21 NA                 800
#>  7 08NM116        1949-04-07 Flow       2.27 NA                 800
#>  8 08NM116        1949-04-08 Flow       2.35 NA                 800
#>  9 08NM116        1949-04-09 Flow       2.78 NA                 800
#> 10 08NM116        1949-04-10 Flow       2.94 NA                 800
#> # … with 35,518 more rows
…
