Add rolling n-day average column(s) to daily flows — add_rolling_means • fasstr
…
# Add default 3, 7, and 30-day rolling mean columns, with "right" alignment
add_rolling_means(station_number = "08NM116")

# Add custom 5 and 10-day rolling mean columns
add_rolling_means(station_number = "08NM116",
                  roll_days = c(5,10))
                  
# Add default 3, 7, and 30-day rolling mean columns, with "left" alignment
add_rolling_means(station_number = "08NM116",
                  roll_align = "left")                
                  
}
#> # A tibble: 21,983 x 8
#>    STATION_NUMBER Date       Parameter Value Symbol Q3Day Q7Day Q30Day
#>    <chr>          <date>     <chr>     <dbl> <chr>  <dbl> <dbl>  <dbl>
#>  1 08NM116        1949-04-01 Flow       1.13 E       1.58  1.93   7.51
#>  2 08NM116        1949-04-02 Flow       1.53 E       1.89  2.10   7.95
#>  3 08NM116        1949-04-03 Flow       2.07 E       2.12  2.28   8.37
#>  4 08NM116        1949-04-04 Flow       2.07 E       2.16  2.40   8.75
#>  5 08NM116        1949-04-05 Flow       2.21 E       2.23  2.88   9.08
#>  6 08NM116        1949-04-06 Flow       2.21 NA      2.28  3.24   9.40
#>  7 08NM116        1949-04-07 Flow       2.27 NA      2.47  3.61   9.72
#>  8 08NM116        1949-04-08 Flow       2.35 NA      2.69  3.85  10.1 
#>  9 08NM116        1949-04-09 Flow       2.78 NA      3.70  4.20  10.7 
#> 10 08NM116        1949-04-10 Flow       2.94 NA      4.36  4.78  11.4 
#> # ... with 21,973 more rows
…
