Calculate annual days above and below normal — calc_annual_outside_normal • fasstr
…
# Run if HYDAT database has been downloaded (using tidyhydat::download_hydat())
if (file.exists(tidyhydat::hy_downloaded_db())) {

# Calculate statistics with default limits of normal (25 and 75th percentiles)
calc_annual_outside_normal(station_number = "08NM116")

# Calculate statistics with custom limits of normal
calc_annual_outside_normal(station_number = "08NM116",
                           normal_percentiles = c(10,90))

}
#> Warning: One or more calculations included missing values and NA's were produced. Filter data for complete years or months, or use to ignore_missing = TRUE to ignore missing values.
#> Warning: One or more calculations included missing values and NA's were produced. Filter data for complete years or months, or use to ignore_missing = TRUE to ignore missing values.
#> # A tibble: 69 x 5
#>    STATION_NUMBER  Year Days_Below_Normal Days_Above_Normal Days_Outside_Normal
#>    <chr>          <dbl>             <int>             <int>               <int>
#>  1 08NM116         1949                NA                NA                  NA
#>  2 08NM116         1950                NA                NA                  NA
#>  3 08NM116         1951                NA                NA                  NA
#>  4 08NM116         1952                NA                NA                  NA
#>  5 08NM116         1953                NA                NA                  NA
#>  6 08NM116         1954                NA                NA                  NA
#>  7 08NM116         1955                NA                NA                  NA
#>  8 08NM116         1956                NA                NA                  NA
#>  9 08NM116         1957                NA                NA                  NA
#> 10 08NM116         1958                NA                NA                  NA
#> # ... with 59 more rows
…
