Calculate annual lowflows — calc_annual_lowflows • fasstr
…
# Calculate annual 1, 3, 7, and 30-day (default) low flows with 
# default alignment ('right')
calc_annual_lowflows(station_number = "08NM116")

# Calculate custom 3 and 7-day annual low flows with 'center' alignment
calc_annual_lowflows(station_number = "08NM116",
                     roll_days = c(3,7),
                     roll_align = "center")

}
#> Warning: One or more calculations included missing values and NA's were produced. Filter data for complete years or months, or use to ignore_missing = TRUE to ignore missing values.
#> Warning: One or more calculations included missing values and NA's were produced. Filter data for complete years or months, or use to ignore_missing = TRUE to ignore missing values.
#> # A tibble: 69 x 8
#>    STATION_NUMBER  Year Min_3_Day Min_3_Day_DoY Min_3_Day_Date Min_7_Day
#>    <chr>          <dbl>     <dbl>         <dbl> <date>             <dbl>
#>  1 08NM116         1949        NA            NA NA                    NA
#>  2 08NM116         1950        NA            NA NA                    NA
#>  3 08NM116         1951        NA            NA NA                    NA
#>  4 08NM116         1952        NA            NA NA                    NA
#>  5 08NM116         1953        NA            NA NA                    NA
#>  6 08NM116         1954        NA            NA NA                    NA
#>  7 08NM116         1955        NA            NA NA                    NA
#>  8 08NM116         1956        NA            NA NA                    NA
#>  9 08NM116         1957        NA            NA NA                    NA
#> 10 08NM116         1958        NA            NA NA                    NA
#> # ... with 59 more rows, and 2 more variables: Min_7_Day_DoY <dbl>,
#> #   Min_7_Day_Date <date>
…
