Calculate all fasstr annual statistics — calc_all_annual_stats • fasstr
…
}
#> Warning: One or more calculations included missing values and NA's were produced. Filter data for complete years or months, or use to ignore_missing = TRUE to ignore missing values.
#> Warning: One or more calculations included missing values and NA's were produced. Filter data for complete years or months, or use to ignore_missing = TRUE to ignore missing values.
#> # A tibble: 69 x 109
#>    STATION_NUMBER  Year Annual_Maximum Annual_Mean Annual_Median Annual_Minimum
#>    <chr>          <dbl>          <dbl>       <dbl>         <dbl>          <dbl>
#>  1 08NM116         1949             NA          NA            NA             NA
#>  2 08NM116         1950             NA          NA            NA             NA
#>  3 08NM116         1951             NA          NA            NA             NA
#>  4 08NM116         1952             NA          NA            NA             NA
#>  5 08NM116         1953             NA          NA            NA             NA
#>  6 08NM116         1954             NA          NA            NA             NA
#>  7 08NM116         1955             NA          NA            NA             NA
#>  8 08NM116         1956             NA          NA            NA             NA
#>  9 08NM116         1957             NA          NA            NA             NA
#> 10 08NM116         1958             NA          NA            NA             NA
#> # ... with 59 more rows, and 103 more variables: Annual_P10 <dbl>,
#> #   Annual_P90 <dbl>, Min_1_Day <dbl>, Min_1_Day_DoY <dbl>, Min_3_Day <dbl>,
#> #   Min_3_Day_DoY <dbl>, Min_7_Day <dbl>, Min_7_Day_DoY <dbl>,
#> #   Min_30_Day <dbl>, Min_30_Day_DoY <dbl>, Total_Volume_m3 <dbl>,
#> #   `Jan-Jun_Volume_m3` <dbl>, `Jul-Dec_Volume_m3` <dbl>,
#> #   `Jan-Mar_Volume_m3` <dbl>, `Apr-Jun_Volume_m3` <dbl>,
#> #   `Jul-Sep_Volume_m3` <dbl>, `Oct-Dec_Volume_m3` <dbl>, Total_Yield_mm <dbl>,
#> #   `Jan-Jun_Yield_mm` <dbl>, `Jul-Dec_Yield_mm` <dbl>,
#> #   `Jan-Mar_Yield_mm` <dbl>, `Apr-Jun_Yield_mm` <dbl>,
…
