Calculate annual peak flows — calc_annual_peaks • fasstr
…
# Calculate annual 1-day (default) peak flow data with 
# default alignment ('right')
calc_annual_peaks(station_number = "08NM116") 

# Calculate custom 3-day peak flow data with 'center' alignment
calc_annual_peaks(station_number = "08NM116",
                  roll_days = 3,
                  roll_align = "center")
                     
}
#> Warning: One or more calculations included missing values and NA's were produced. If desired, filter data for complete years or months, or use the 'ignore_missing' or 'allowed_missing' arguments (if applicable) to ignore or allow some missing values.
#> Warning: One or more calculations included missing values and NA's were produced. If desired, filter data for complete years or months, or use the 'ignore_missing' or 'allowed_missing' arguments (if applicable) to ignore or allow some missing values.
#> # A tibble: 69 x 8
#>    STATION_NUMBER  Year Min_3_Day Min_3_Day_DoY Min_3_Day_Date Max_3_Day
#>    <chr>          <dbl>     <dbl>         <dbl> <date>             <dbl>
#>  1 08NM116         1949        NA            NA NA                    NA
#>  2 08NM116         1950        NA            NA NA                    NA
#>  3 08NM116         1951        NA            NA NA                    NA
#>  4 08NM116         1952        NA            NA NA                    NA
#>  5 08NM116         1953        NA            NA NA                    NA
#>  6 08NM116         1954        NA            NA NA                    NA
#>  7 08NM116         1955        NA            NA NA                    NA
#>  8 08NM116         1956        NA            NA NA                    NA
#>  9 08NM116         1957        NA            NA NA                    NA
#> 10 08NM116         1958        NA            NA NA                    NA
#> # ... with 59 more rows, and 2 more variables: Max_3_Day_DoY <dbl>,
#> #   Max_3_Day_Date <date>
…
