Calculate daily summary statistics — calc_daily_stats • fasstr
…
# Calculate daily statistics using only years with no missing data
calc_daily_stats(station_number = "08NM116",
                 complete_years = TRUE)

# Calculate daily statistics for water years starting in October between 1980 and 2010
calc_daily_stats(station_number = "08NM116",
                 start_year = 1980,
                 end_year = 2010,
                 water_year_start = 10)
                 
}

#> # A tibble: 365 x 11
#>    STATION_NUMBER Date  DayofYear  Mean Median Minimum Maximum    P5   P25   P75
#>    <chr>          <chr>     <dbl> <dbl>  <dbl>   <dbl>   <dbl> <dbl> <dbl> <dbl>
#>  1 08NM116        Oct-~         1  1.91   1.52   0.519    6.12 0.646 0.826  2.37
#>  2 08NM116        Oct-~         2  1.98   1.46   0.501    7.93 0.704 0.943  2.17
#>  3 08NM116        Oct-~         3  1.97   1.51   0.455    8.53 0.641 1.06   2.33
#>  4 08NM116        Oct-~         4  1.87   1.5    0.464    7.60 0.626 1.05   2.31
#>  5 08NM116        Oct-~         5  2.02   1.30   0.554   10.6  0.623 0.958  2.36
#>  6 08NM116        Oct-~         6  1.96   1.34   0.549    9.41 0.591 0.986  2.29
#>  7 08NM116        Oct-~         7  1.96   1.48   0.455    6.87 0.604 1.04   2.30
#>  8 08NM116        Oct-~         8  1.98   1.57   0.530    5.75 0.583 1.01   2.57
#>  9 08NM116        Oct-~         9  1.96   1.43   0.457    5.99 0.551 0.911  2.27
#> 10 08NM116        Oct-~        10  1.89   1.53   0.546    5.90 0.593 0.961  2.25
#> # ... with 355 more rows, and 1 more variable: P95 <dbl>
…
