Calculate monthly summary statistics — calc_monthly_stats • fasstr
…
# Calculate statistics with custom years and percentiles
calc_monthly_stats(station_number = "08NM116",
                   start_year = 1981,
                   end_year = 2010,
                   exclude_years = c(1991,1993:1995),
                   percentiles = c(25,75))
                   
}
#> Warning: One or more calculations included missing values and NA's were produced. Some months in some years have no data to summarize.
#> Warning: One or more calculations included missing values and NA's were produced. If desired, filter data for complete years or months, or use the 'ignore_missing' or 'allowed_missing' arguments (if applicable) to ignore or allow some missing values.
#> # A tibble: 360 x 9
#>    STATION_NUMBER  Year Month  Mean Median Maximum Minimum   P25   P75
#>    <chr>          <dbl> <fct> <dbl>  <dbl>   <dbl>   <dbl> <dbl> <dbl>
#>  1 08NM116         1981 Jan    1.99   1.93    4.11   0.850  1.39  2.34
#>  2 08NM116         1981 Feb    1.51   1.56    2.18   0.680  1.10  1.93
#>  3 08NM116         1981 Mar    1.75   1.75    2.23   1.33   1.62  1.86
#>  4 08NM116         1981 Apr    5.04   2.20   17.8    1.81   2.04  5.91
#>  5 08NM116         1981 May   28.8   22.5    60.6   12.6   16.6  38.0 
#>  6 08NM116         1981 Jun   23.9   25.0    34.8   12.4   18.2  28.6 
#>  7 08NM116         1981 Jul   14.2   14.6    27.3    6      9.59 17.4 
#>  8 08NM116         1981 Aug    3.38   2.99    6.26   1.89   2.42  3.90
#>  9 08NM116         1981 Sep    2.76   2.75    6.19   0.398  1.58  3.53
#> 10 08NM116         1981 Oct    3.12   3       5.43   1.79   2.27  3.81
#> # ... with 350 more rows
…
