Calculate annual summary statistics — calc_annual_stats • fasstr
…
# Calculate annual statistics for 7-day flows for July-September 
# months only, with 25 and 75th percentiles
calc_annual_stats(station_number = "08NM116",
                  roll_days = 7,
                  months = 7:9,
                  percentiles = c(25,75))
                  
}
#> Warning: One or more calculations included missing values and NA's were produced. If desired, filter data for complete years or months, or use the 'ignore_missing' or 'allowed_missing' arguments (if applicable) to ignore or allow some missing values.
#> Warning: One or more calculations included missing values and NA's were produced. If desired, filter data for complete years or months, or use the 'ignore_missing' or 'allowed_missing' arguments (if applicable) to ignore or allow some missing values.
#> Warning: One or more calculations included missing values and NA's were produced. If desired, filter data for complete years or months, or use the 'ignore_missing' or 'allowed_missing' arguments (if applicable) to ignore or allow some missing values.
#> Warning: One or more calculations included missing values and NA's were produced. If desired, filter data for complete years or months, or use the 'ignore_missing' or 'allowed_missing' arguments (if applicable) to ignore or allow some missing values.
#> # A tibble: 69 x 8
#>    STATION_NUMBER  Year  Mean Median Maximum Minimum   P25   P75
#>    <chr>          <dbl> <dbl>  <dbl>   <dbl>   <dbl> <dbl> <dbl>
#>  1 08NM116         1949  1.52   1.32    4.29   0.838 1.09   1.64
#>  2 08NM116         1950  2.71   1.36   16.6    0.714 0.860  2.10
#>  3 08NM116         1951  2.21   1.23    8.80   0.629 0.758  2.01
#>  4 08NM116         1952  2.85   1.93   12.9    1.11  1.32   2.56
#>  5 08NM116         1953  4.77   2.24   24.1    0.821 1.32   7.29
#>  6 08NM116         1954  7.65   4.34   30.5    1.98  3.14   8.88
#>  7 08NM116         1955  4.82   2.35   19.9    0.396 1.21   4.97
#>  8 08NM116         1956  2.25   1.29    8.21   0.784 0.998  2.33
#>  9 08NM116         1957  2.36   1.92    6.23   0.916 1.29   2.84
#> 10 08NM116         1958  1.71   1.23    5.51   0.578 0.880  2.04
#> # ... with 59 more rows
…
