Calculate annual (and seasonal) cumulative flows — calc_annual_cumulative_stats • fasstr
…
# Calculate annual total yield statistics with default HYDAT basin area
calc_annual_cumulative_stats(station_number = "08NM116",
                             use_yield = TRUE)

# Calculate annual total yield statistics with a custom basin area
calc_annual_cumulative_stats(station_number = "08NM116",
                             use_yield = TRUE,
                             basin_area = 800)

}
#> Warning: One or more calculations included missing values and NA's were produced. Filter data for complete years or months, or use to ignore_missing = TRUE to ignore missing values.
#> Warning: One or more calculations included missing values and NA's were produced. Filter data for complete years or months, or use to ignore_missing = TRUE to ignore missing values.
#> Warning: One or more calculations included missing values and NA's were produced. Filter data for complete years or months, or use to ignore_missing = TRUE to ignore missing values.
#> # A tibble: 69 x 3
#>    STATION_NUMBER  Year Total_Yield_mm
#>    <chr>          <dbl>          <dbl>
#>  1 08NM116         1949             NA
#>  2 08NM116         1950             NA
#>  3 08NM116         1951             NA
#>  4 08NM116         1952             NA
#>  5 08NM116         1953             NA
#>  6 08NM116         1954             NA
#>  7 08NM116         1955             NA
#>  8 08NM116         1956             NA
#>  9 08NM116         1957             NA
#> 10 08NM116         1958             NA
#> # ... with 59 more rows
…
