Fill dates of missing flow values with NA — fill_missing_dates • fasstr
…
    Examples

# Run if HYDAT database has been downloaded (using tidyhydat::download_hydat())
if (file.exists(tidyhydat::hy_downloaded_db())) {

# Fill missing dates with NA using calendar years
fill_missing_dates(station_number = "08NM116")

# Fill missing dates with NA using water years starting in August
fill_missing_dates(station_number = "08NM116",
                   water_year_start = 8)

}
#> # A tibble: 25,567 x 5
#>    STATION_NUMBER Date       Parameter Value Symbol
#>    <chr>          <date>     <chr>     <dbl> <chr> 
#>  1 08NM116        1948-08-01 Flow         NA NA    
#>  2 08NM116        1948-08-02 Flow         NA NA    
#>  3 08NM116        1948-08-03 Flow         NA NA    
#>  4 08NM116        1948-08-04 Flow         NA NA    
#>  5 08NM116        1948-08-05 Flow         NA NA    
#>  6 08NM116        1948-08-06 Flow         NA NA    
#>  7 08NM116        1948-08-07 Flow         NA NA    
#>  8 08NM116        1948-08-08 Flow         NA NA    
#>  9 08NM116        1948-08-09 Flow         NA NA    
#> 10 08NM116        1948-08-10 Flow         NA NA    
#> # ... with 25,557 more rows
…
