Calculate annual summary and missing data statistics for screening data — screen_flow_data • fasstr
…
# Calculate screening statistics using station_number argument with defaults
screen_flow_data(station_number = "08NM116")
                  
# Calculate screening statistics for water years starting in October
screen_flow_data(station_number = "08NM116",
                 water_year_start = 9)
                  
# Calculate screening statistics for 7-day flows for July-September months only
screen_flow_data(station_number = "08NM116",
                 roll_days = 7,
                 months = 7:9)
                 
}
#> # A tibble: 73 × 16
#>    STATION_NUMBER  Year n_days   n_Q n_missing_Q E_Symbol No_Symbol A_Symbol
#>    <chr>          <dbl>  <int> <int>       <int>    <int>     <int>    <int>
#>  1 08NM116         1949     92    92           0        5        87        0
#>  2 08NM116         1950     92    92           0        0        92        0
#>  3 08NM116         1951     92    92           0        0        92        0
#>  4 08NM116         1952     92    92           0        0        92        0
#>  5 08NM116         1953     92    92           0        0        92        0
#>  6 08NM116         1954     92    92           0        0        92        0
#>  7 08NM116         1955     92    92           0        0        92        0
#>  8 08NM116         1956     92    92           0        0        92        0
#>  9 08NM116         1957     92    92           0        0        92        0
#> 10 08NM116         1958     92    92           0        0        92        0
#> # ℹ 63 more rows
#> # ℹ 8 more variables: Minimum <dbl>, Maximum <dbl>, Mean <dbl>, Median <dbl>,
#> #   StandardDeviation <dbl>, Jul_missing_Q <int>, Aug_missing_Q <int>,
#> #   Sep_missing_Q <int>
…
